{
    "AUTHOR" : "Roxedus",
    "INSTALL_MSG" : "Im going to try not crash your server",
    "NAME" : "RepeatAfterMe",
    "SHORT" : "RepeatAfterMe",
    "DESCRIPTION" : "RepeatAfterMe",
    "TAGS" : ["utility"],
    "HIDDEN" : false
}